{
    "modules": [
        {
            "config": {
                "position": [
                    200,
                    22
                ]
            },
            "name": "New Model Object",
            "value": {
                "actionGroup": {
                    "_default0_list": false,
                    "_default1_show": false,
                    "_default2_new_create": false,
                    "_default3_edit_update": false,
                    "_default4_delete": false,
                    "customActions": [
                        "showVideo"
                    ]
                },
                "name": "Video",
                "objectsettings": {
                    "addDeletedField": true,
                    "addHiddenField": true,
                    "addStarttimeEndtimeFields": true,
                    "aggregateRoot": true,
                    "categorizable": false,
                    "description": "",
                    "mapToTable": "",
                    "parentClass": "",
                    "sorting": false,
                    "type": "Entity",
                    "uid": "347481032281"
                },
                "propertyGroup": {
                    "properties": [
                        {
                            "allowedFileTypes": "",
                            "maxItems": "1",
                            "propertyDescription": "",
                            "propertyIsExcludeField": false,
                            "propertyIsRequired": false,
                            "propertyName": "format",
                            "propertyType": "Select",
                            "uid": "1137903864396"
                        },
                        {
                            "allowedFileTypes": "",
                            "maxItems": "1",
                            "propertyDescription": "",
                            "propertyIsExcludeField": false,
                            "propertyIsRequired": false,
                            "propertyName": "image",
                            "propertyType": "Image",
                            "uid": "1380691475605"
                        },
                        {
                            "allowedFileTypes": "",
                            "maxItems": "1",
                            "propertyDescription": "",
                            "propertyIsExcludeField": false,
                            "propertyIsRequired": false,
                            "propertyName": "largemp4",
                            "propertyType": "File",
                            "uid": "1154086497742"
                        },
                        {
                            "allowedFileTypes": "",
                            "maxItems": "1",
                            "propertyDescription": "",
                            "propertyIsExcludeField": false,
                            "propertyIsRequired": false,
                            "propertyName": "largewebm",
                            "propertyType": "File",
                            "uid": "93629325946"
                        },
                        {
                            "allowedFileTypes": "",
                            "maxItems": "1",
                            "propertyDescription": "",
                            "propertyIsExcludeField": false,
                            "propertyIsRequired": false,
                            "propertyName": "largeogv",
                            "propertyType": "File",
                            "uid": "1275783002697"
                        },
                        {
                            "allowedFileTypes": "",
                            "maxItems": "1",
                            "propertyDescription": "",
                            "propertyIsExcludeField": false,
                            "propertyIsRequired": false,
                            "propertyName": "smallmp4",
                            "propertyType": "File",
                            "uid": "1229413045198"
                        },
                        {
                            "allowedFileTypes": "",
                            "maxItems": "1",
                            "propertyDescription": "",
                            "propertyIsExcludeField": false,
                            "propertyIsRequired": false,
                            "propertyName": "smallwebm",
                            "propertyType": "File",
                            "uid": "1144476600881"
                        },
                        {
                            "allowedFileTypes": "",
                            "maxItems": "1",
                            "propertyDescription": "",
                            "propertyIsExcludeField": false,
                            "propertyIsRequired": false,
                            "propertyName": "smallogv",
                            "propertyType": "File",
                            "uid": "819519649516"
                        },
                        {
                            "allowedFileTypes": "",
                            "maxItems": "1",
                            "propertyDescription": "",
                            "propertyIsExcludeField": false,
                            "propertyIsRequired": false,
                            "propertyName": "videoid",
                            "propertyType": "String",
                            "uid": "553493714702"
                        },
                        {
                            "allowedFileTypes": "",
                            "maxItems": "1",
                            "propertyDescription": "",
                            "propertyIsExcludeField": false,
                            "propertyIsRequired": false,
                            "propertyName": "preload",
                            "propertyType": "Select",
                            "uid": "55998187612"
                        },
                        {
                            "allowedFileTypes": "",
                            "maxItems": "1",
                            "propertyDescription": "",
                            "propertyIsExcludeField": false,
                            "propertyIsRequired": false,
                            "propertyName": "autoplay",
                            "propertyType": "Boolean",
                            "uid": "1027827165072"
                        },
                        {
                            "allowedFileTypes": "",
                            "maxItems": "1",
                            "propertyDescription": "",
                            "propertyIsExcludeField": false,
                            "propertyIsRequired": false,
                            "propertyName": "controls",
                            "propertyType": "Boolean",
                            "uid": "424538079349"
                        },
                        {
                            "allowedFileTypes": "",
                            "maxItems": "1",
                            "propertyDescription": "",
                            "propertyIsExcludeField": false,
                            "propertyIsRequired": false,
                            "propertyName": "muted",
                            "propertyType": "Boolean",
                            "uid": "1036517986564"
                        },
                        {
                            "allowedFileTypes": "",
                            "maxItems": "1",
                            "propertyDescription": "",
                            "propertyIsExcludeField": false,
                            "propertyIsRequired": false,
                            "propertyName": "ratio",
                            "propertyType": "Select",
                            "uid": "1320972495909"
                        },
                        {
                            "allowedFileTypes": "",
                            "maxItems": "1",
                            "propertyDescription": "",
                            "propertyIsExcludeField": false,
                            "propertyIsRequired": false,
                            "propertyName": "playbyclick",
                            "propertyType": "Boolean",
                            "uid": "366949808032"
                        },
                        {
                            "allowedFileTypes": "",
                            "maxItems": "1",
                            "propertyDescription": "",
                            "propertyIsExcludeField": false,
                            "propertyIsRequired": false,
                            "propertyName": "autopausebyothervideo",
                            "propertyType": "Boolean",
                            "uid": "607140401436"
                        },
                        {
                            "allowedFileTypes": "",
                            "maxItems": "1",
                            "propertyDescription": "",
                            "propertyIsExcludeField": false,
                            "propertyIsRequired": false,
                            "propertyName": "autopausebyvisibility",
                            "propertyType": "Boolean",
                            "uid": "1270989473161"
                        },
                        {
                            "allowedFileTypes": "",
                            "maxItems": "1",
                            "propertyDescription": "",
                            "propertyIsExcludeField": false,
                            "propertyIsRequired": false,
                            "propertyName": "loopvideo",
                            "propertyType": "Boolean",
                            "uid": "649228041979"
                        },
                        {
                            "allowedFileTypes": "",
                            "maxItems": "1",
                            "propertyDescription": "",
                            "propertyIsExcludeField": false,
                            "propertyIsRequired": false,
                            "propertyName": "width",
                            "propertyType": "Select",
                            "uid": "359595421942"
                        }
                    ]
                },
                "relationGroup": {
                    "relations": []
                }
            }
        }
    ],
    "properties": {
        "backendModules": [],
        "description": "",
        "emConf": {
            "category": "plugin",
            "custom_category": "",
            "dependsOn": "typo3 => 8.7.0-0.0.0\n",
            "disableLocalization": false,
            "disableVersioning": false,
            "skipGenerateDocumentationTemplate": false,
            "sourceLanguage": "en",
            "state": "stable",
            "targetVersion": "8.7.0-8.7.99",
            "version": "8.0.0"
        },
        "extensionKey": "hive_cpt_cnt_video",
        "name": "hive_cpt_cnt_video",
        "originalExtensionKey": "hive_cpt_cnt_video",
        "originalVendorName": "HIVE",
        "persons": [
            {
                "company": "teufels GmbH",
                "email": "a.hafner@teufels.com",
                "name": "Andreas Hafner",
                "role": "Developer"
            },
            {
                "company": "teufels GmbH",
                "email": "d.hilser@teufels.com",
                "name": "Dominik Hilser",
                "role": "Developer"
            },
            {
                "company": "teufels GmbH",
                "email": "g.kathan@teufels.com",
                "name": "Georg Kathan",
                "role": "Developer"
            },
            {
                "company": "teufels GmbH",
                "email": "h.krueger@teufels.com",
                "name": "Hendrik Kr\u00fcger",
                "role": "Developer"
            },
            {
                "company": "teufels GmbH",
                "email": "j.rodriguez@teufels.com",
                "name": "Josymar Escalona Rodriguez",
                "role": "Developer"
            },
            {
                "company": "teufels GmbH",
                "email": "p.ennen@teufels.com",
                "name": "Perrin Ennen",
                "role": "Developer"
            },
            {
                "company": "teufels GmbH",
                "email": "t.bittner@teufels.com",
                "name": "Timo Bittner",
                "role": "Developer"
            },
            {
                "company": "teufels GmbH",
                "email": "y.aister@teufels.com",
                "name": "Yannick Aister",
                "role": "Developer"
            }
        ],
        "plugins": [
            {
                "actions": {
                    "controllerActionCombinations": "Video => showVideo",
                    "noncacheableActions": "",
                    "switchableActions": ""
                },
                "key": "hivevideoshowvideo",
                "name": "hive :: video :: showVideo"
            }
        ],
        "vendorName": "HIVE"
    },
    "wires": [],
    "log": {
        "last_modified": "2018-01-19 10:23",
        "extension_builder_version": "8.7.0",
        "be_user": " (1)"
    }
}